Sample_name,Diet,DN,Sample_type,fish_number,Tank,quant_reading,Sample_kind,Sample,Sample_name
S1,FP,9,control,FP,,20,Negative_control,FP,FP
S2,NC,9,control,NC,,2,Negative_control,NC,NC
S3,DFIM,3,Digesta,7,3,36,True_sample,DFIM,DFIM
S4,DFIM,3,Digesta,8,3,67,True_sample,DFIM,DFIM
S5,DCIM,4,Digesta,13,4,59,True_sample,DCIM,DCIM
S6,DCIM,4,Digesta,14,4,57,True_sample,DCIM,DCIM
S7,CD,1,Digesta,19,5,47,True_sample,CD,CD
S8,CD,1,Digesta,20,5,61,True_sample,CD,CD
S9,IO,5,Digesta,31,7,17,True_sample,IO,IO
S10,IO,5,Digesta,32,7,8,True_sample,IO,IO
S11,EX,6,Digesta,37,8,5,True_sample,EX,EX
S12,EX,6,Digesta,38,8,6,True_sample,EX,EX
S13,IM,2,Digesta,1,2,74,True_sample,IM,IM
S14,IM,2,Digesta,2,2,108,True_sample,IM,IM
S15,IM,2,Digesta,3,2,62,True_sample,IM,IM
S16,DFIM,3,Digesta,10,3,20,True_sample,DFIM,DFIM
S17,DCIM,4,Digesta,15,4,73,True_sample,DCIM,DCIM
S18,IM,2,Digesta,4,2,111,True_sample,IM,IM
S19,CD,1,Digesta,21,5,76,True_sample,CD,CD
S20,CD,1,Digesta,22,5,63,True_sample,CD,CD
S21,IO,5,Digesta,33,7,33,True_sample,IO,IO
S22,IO,5,Digesta,34,7,27,True_sample,IO,IO
S23,EX,6,Digesta,39,8,20,True_sample,EX,EX
S24,IM,2,Digesta,26,6,178,True_sample,IM,IM
S25,IM,2,Digesta,27,6,130,True_sample,IM,IM
S26,DCIM,4,Digesta,50,10,71,True_sample,DCIM,DCIM
S27,DFIM,3,Digesta,12,3,68,True_sample,DFIM,DFIM
S28,DCIM,4,Digesta,17,4,114,True_sample,DCIM,DCIM
S29,DCIM,4,Digesta,51,10,77,True_sample,DCIM,DCIM
S30,IM,2,Digesta,25,6,134,True_sample,IM,IM
S31,CD,1,Digesta,56,11,60,True_sample,CD,CD
S32,EX,6,Digesta,41,8,15,True_sample,EX,EX
S33,DCIM,4,Digesta,49,10,93,True_sample,DCIM,DCIM
S34,CD,1,Digesta,55,11,61,True_sample,CD,CD
S35,EX,6,Digesta,79,15,21,True_sample,EX,EX
S36,IO,5,Digesta,91,17,30,True_sample,IO,IO
S37,CD,1,Digesta,57,11,69,True_sample,CD,CD
S38,IM,2,Digesta,28,6,182,True_sample,IM,IM
S39,DFIM,3,Digesta,43,9,56,True_sample,DFIM,DFIM
S40,DFIM,3,Digesta,44,9,80,True_sample,DFIM,DFIM
S41,IM,2,Digesta,29,6,230,True_sample,IM,IM
S42,IM,2,Digesta,73,14,82,True_sample,IM,IM
S43,IM,2,Digesta,74,14,166,True_sample,IM,IM
S44,IM,2,Digesta,75,14,130,True_sample,IM,IM
S45,EX,6,Digesta,80,15,16,True_sample,EX,EX
S46,EX,6,Digesta,81,15,61,True_sample,EX,EX
S47,IO,5,Digesta,92,17,34,True_sample,IO,IO
S48,IO,5,Digesta,93,17,2,True_sample,IO,IO
S49,DCIM,4,Digesta,98,18,93,True_sample,DCIM,DCIM
S50,DCIM,4,Digesta,99,18,107,True_sample,DCIM,DCIM
S51,DFIM,3,Digesta,45,9,205,True_sample,DFIM,DFIM
S52,DFIM,3,Digesta,46,9,120,True_sample,DFIM,DFIM
S53,DCIM,4,Digesta,52,10,83,True_sample,DCIM,DCIM
S54,IM,2,Digesta,76,14,160,True_sample,IM,IM
S55,CD,1,Digesta,58,11,170,True_sample,CD,CD
S56,CD,1,Digesta,59,11,97,True_sample,CD,CD
S57,EX,6,Digesta,82,15,85,True_sample,EX,EX
S58,EX,6,Digesta,83,15,29,True_sample,EX,EX
S59,IO,5,Digesta,94,17,27,True_sample,IO,IO
S60,IO,5,Digesta,95,17,23,True_sample,IO,IO
S61,IO,5,Feed,D5A,,53,Feed_sample,Feed,FeedIO
S62,EX,6,Feed,D6A,,70,Feed_sample,Feed,FeedEX
S63,IO,5,Feed,D5B,,21,Feed_sample,Feed,FeedIO
S64,EX,6,Feed,D6B,,12,Feed_sample,Feed,FeedEX
S65,DFIM,3,Digesta,61,12,81,True_sample,DFIM,DFIM
S66,CD,1,Digesta,67,13,75,True_sample,CD,CD
S67,TW,8,Water,W1,,272,Water_sample,Water,Water
S68,TW,8,Water,W2,,284,Water_sample,Water,Water
S69,EX,6,Digesta,85,16,26,True_sample,EX,EX
S70,IO,5,Digesta,96,17,93,True_sample,IO,IO
S71,DCIM,4,Digesta,97,18,50,True_sample,DCIM,DCIM
S72,IO,5,Digesta,103,19,176,True_sample,IO,IO
S73,DFIM,3,Digesta,62,12,102,True_sample,DFIM,DFIM
S74,DFIM,3,Digesta,63,12,70,True_sample,DFIM,DFIM
S75,CD,1,Digesta,68,13,115,True_sample,CD,CD
S76,CD,1,Digesta,69,13,117,True_sample,CD,CD
S77,CD,1,Feed,D1A,,129,Feed_sample,Feed,FeedCD
S78,IM,2,Feed,D2A,,201,Feed_sample,Feed,FeedIM
S79,EX,6,Digesta,86,16,161,True_sample,EX,EX
S80,EX,6,Digesta,87,16,5,True_sample,EX,EX
S81,DFIM,3,Feed,D3A,,149,Feed_sample,Feed,FeedDFIM
S82,DCIM,4,Feed,D4A,,172,Feed_sample,Feed,FeedDCIM
S83,IO,5,Digesta,104,19,174,True_sample,IO,IO
S84,IO,5,Digesta,105,19,72,True_sample,IO,IO
S85,DFIM,3,Digesta,64,12,43,True_sample,DFIM,DFIM
S86,DFIM,3,Digesta,65,12,54,True_sample,DFIM,DFIM
S87,CD,1,Digesta,70,13,65,True_sample,CD,CD
S88,Mock_1,7,Positive_control,PC1,,247,True_sample,Mock_1,Mock_1
S89,Mock_2,7,Positive_control,PC2,,162,True_sample,Mock_2,Mock_2
S90,CD,1,Feed,D1B,,42,Feed_sample,Feed,FeedCD
S91,EX,6,Digesta,88,16,138,True_sample,EX,EX
S92,IM,2,Feed,D2B,,152,Feed_sample,Feed,FeedIM
S93,DCIM,4,Digesta,100,18,26,True_sample,DCIM,DCIM
S94,DCIM,4,Digesta,101,18,129,True_sample,DCIM,DCIM
S95,DFIM,3,Feed,D3B,,84,Feed_sample,Feed,FeedDFIM
S96,DCIM,4,Feed,D4B,,192,Feed_sample,Feed,FeedDCIM
Undetermined,,,,,,,,,
